{
    "bind": ":9876",
    "items": [
    {
        "repo": "https://github.com/qiniu/docs.qiniu.com",
        "branch": "master",
        "script": "update-qiniu-docs.sh"
    },
    {
        "repo": "https://bitbucket.org/Wuvist/angelbot/",
        "branch": "master",
        "script": "restart-angelbot.sh"
    }
]}